{
    "schema": "1.0",
    "type": "whmcs-addons",
    "name": "Team.blue Webnode configuration addon",
    "license": "MIT",
    "category": "addon",
    "description": {
        "name": "Team.blue Webnode Configuration",
        "tagline": "Addon required for function of webnode provisioning module.",
        "long": "Creates tables and allows to setup webnode configuration, both required for working of Webnode Provisioning module",
        "features": []
    },
    "logo": {
        "filename": "logo.png"
    },
    "authors": [
        {
            "name": "Team.blue",
            "homepage": "https:\/\/team.blue\/"
        }
    ]
}
