{
    "schema": "1.0",
    "type": "whmcs-servers",
    "name": "Team.blue Webnode",
    "license": "MIT",
    "category": "provisioning",
    "description": {
        "name": "Team.blue Webnode",
        "tagline": "Allows to provision and manage products using Webnode's sitebuilder.",
        "long": "Allows to provision and manage products using Webnode's sitebuilder.",
        "features": []
    },
    "logo": {
        "filename": "logo.png"
    },
    "authors": [
        {
            "name": "Team.blue",
            "homepage": "https:\/\/team.blue\/"
        }
    ]
}
